main () {
    new a = 2;
    new v = 3 - 1 * 2 / 2;
    if ( a == 5 ){
        new z = 5;
    } else {
        if ( a >= 1 ){
            if (a < 4){
                new z = 9; 
            }
        }
    }
} 